LISTAS AS CHAVES DO OFFICE 365/2019

cscript "%ProgramFiles%\Microsoft Office\Office16\ospp.vbs" /dstatus

ou

cscript "%ProgramFiles(x86)%\Microsoft Office\Office16\ospp.vbs" /dstatus

----------------------------------------------------------------------------

REMOVER A CHAVE DO OFFICE 365/2019

cscript "%ProgramFiles%\Microsoft Office\Office16\ospp.vbs" /unpkey:VMFTK

ou

cscript "%ProgramFiles(x86)%\Microsoft Office\Office16\ospp.vbs" /unpkey:VMFTK
